Lecture 7: Hypothesis testing and classification
…
Suppose we would like to predict students’ admission to graduate school based on their GRE, GPA, and the rank of their undergraduate institution.

admissions <- read_csv("https://stats.idre.ucla.edu/stat/data/binary.csv")

## Parsed with column specification:
## cols(
##   admit = col_integer(),
##   gre = col_integer(),
##   gpa = col_double(),
##   rank = col_integer()
## )

admissions

## # A tibble: 400 x 4
##    admit   gre   gpa  rank
##    <int> <int> <dbl> <int>
##  1     0   380  3.61     3
##  2     1   660  3.67     3
##  3     1   800  4        1
##  4     1   640  3.19     4
##  5     0   520  2.93     4
##  6     1   760  3        2
##  7     1   560  2.98     1
##  8     0   400  3.08     2
##  9     1   540  3.39     3
## 10     0   700  3.92     2
## # ... with 390 more rows
…
sapply(admissions, class)

##     admit       gre       gpa      rank 
## "integer" "integer" "numeric" "integer"

We convert the two columns to factors.

admissions <- mutate(admissions,
  admit = factor(admit, levels = c(0, 1), labels = c("rejected", "admitted")),
  rank = factor(rank, levels = 1:4)
)
admissions

## # A tibble: 400 x 4
##    admit      gre   gpa rank 
##    <fct>    <int> <dbl> <fct>
##  1 rejected   380  3.61 3    
##  2 admitted   660  3.67 3    
##  3 admitted   800  4    1    
##  4 admitted   640  3.19 4    
##  5 rejected   520  2.93 4    
##  6 admitted   760  3    2    
##  7 admitted   560  2.98 1    
##  8 rejected   400  3.08 2    
##  9 admitted   540  3.39 3    
## 10 rejected   700  3.92 2    
## # ... with 390 more rows
…
(train <- train %>%
    mutate(
        admit_odds = predict(logit_fit),
        admit_prob = predict(logit_fit, type = "response"),
        admit_pred = factor(admit_prob < 0.5, levels = c(TRUE, FALSE), 
                            labels = c("rejected", "admitted")),
        admit_pred2 = factor(admit_odds < 0, levels = c(TRUE, FALSE), 
                            labels = c("rejected", "admitted"))
    ))

## # A tibble: 240 x 8
##    admit      gre   gpa rank  admit_odds admit_prob admit_pred admit_pred2
##    <fct>    <int> <dbl> <fct>      <dbl>      <dbl> <fct>      <fct>      
##  1 rejected   640  3.67 3         -1.22       0.228 rejected   rejected   
##  2 admitted   700  3.52 4         -0.830      0.304 rejected   rejected   
##  3 rejected   400  3.35 3         -1.65       0.161 rejected   rejected   
##  4 rejected   580  3.51 2         -0.328      0.419 rejected   rejected   
##  5 admitted   640  3.19 4         -1.10       0.249 rejected   rejected   
##  6 admitted   580  3.58 1          0.228      0.557 admitted   admitted   
##  7 rejected   560  3.36 3         -1.50       0.183 rejected   rejected   
##  8 rejected   460  3.77 3         -1.32       0.211 rejected   rejected   
##  9 admitted   560  2.98 1         -0.186      0.454 rejected   rejected   
## 10 rejected   580  3.02 2         -0.651      0.343 rejected   rejected   
## # ... with 230 more rows
…
valid <- valid %>%
    mutate(
        admit_odds_fit1 = predict(logit_fit, newdata = valid),
        admit_odds_fit2 = predict(logit_fit2, newdata = valid),
        admit_fit1 = factor(admit_odds_fit1 < 0, 
                            levels = c(TRUE, FALSE), 
                            labels = c("rejected", "admitted")),
        admit_fit2 = factor(admit_odds_fit2 < 0, 
                            levels = c(TRUE, FALSE), 
                            labels = c("rejected", "admitted"))
    )
valid

## # A tibble: 80 x 8
##    admit   gre   gpa rank  admit_odds_fit1 admit_odds_fit2 admit_fit1
##    <fct> <int> <dbl> <fct>           <dbl>           <dbl> <fct>     
##  1 reje…   340  2.92 3              -1.99           -1.41  rejected  
##  2 reje…   660  3.31 4              -1.01           -1.03  rejected  
##  3 admi…   300  2.84 2              -1.03           -0.389 rejected  
##  4 reje…   500  4    3              -1.13           -1.41  rejected  
##  5 reje…   780  3.87 4              -0.526          -1.03  rejected  
##  6 reje…   600  3.63 3              -1.28           -1.41  rejected  
##  7 reje…   540  3.78 4              -0.807          -1.03  rejected  
##  8 admi…   800  3.74 1               0.536           0.163 admitted  
##  9 admi…   800  3.43 2              -0.178          -0.389 rejected  
## 10 admi…   740  2.97 2              -0.536          -0.389 rejected  
## # ... with 70 more rows, and 1 more variable: admit_fit2 <fct>
…
