Lecture 3: Data Manipulation
…
Convert to tibble

library(dplyr)

# convert to tibble
movies <- tbl_df(movies.df)
class(movies)

## [1] "tbl_df"     "tbl"        "data.frame"

# printing only shows 10 rows and as many columns as can fit on your screen
movies

## # A tibble: 6,820 x 15
##      budget                                 company country         director
##  *    <dbl>                                  <fctr>  <fctr>           <fctr>
##  1  8000000           Columbia Pictures Corporation     USA       Rob Reiner
##  2  6000000                      Paramount Pictures     USA      John Hughes
##  3 15000000                      Paramount Pictures     USA       Tony Scott
##  4 18500000  Twentieth Century Fox Film Corporation     USA    James Cameron
##  5  9000000                    Walt Disney Pictures     USA   Randal Kleiser
##  6  6000000                                 Hemdale      UK     Oliver Stone
##  7 25000000                  Henson Associates (HA)      UK       Jim Henson
##  8  6000000 De Laurentiis Entertainment Group (DEG)     USA      David Lynch
##  9  9000000                      Paramount Pictures     USA    Howard Deutch
## 10 15000000                    SLM Production Group     USA David Cronenberg
## # ... with 6,810 more rows, and 11 more variables: genre <fctr>, gross <dbl>,
## #   name <fctr>, rating <fctr>, released <fctr>, runtime <int>, score <dbl>,
## #   star <fctr>, votes <int>, writer <fctr>, year <int>
…
subsequent argument specify what to do

always return a data frame

filter(): keep rows matching criteria

# base R approach to find all comedies by Woody Allen
movies[movies$genre == "Comedy" & movies$director == "Woody Allen", ]

# dplyr approach
# note: both comma or ampersand represent AND condition
filter(movies, genre == "Comedy", director == "Woody Allen")

## # A tibble: 27 x 15
##      budget                                     company country    director
##       <dbl>                                      <fctr>  <fctr>      <fctr>
##  1  6400000                              Orion Pictures     USA Woody Allen
##  2 16000000                              Orion Pictures     USA Woody Allen
##  3 19000000 Jack Rollins & Charles H. Joffe Productions     USA Woody Allen
##  4 15000000                         Touchstone Pictures     USA Woody Allen
##  5 12000000                              Orion Pictures     USA Woody Allen
##  6 14000000                              Orion Pictures     USA Woody Allen
##  7 20000000                            TriStar Pictures     USA Woody Allen
##  8 13500000                            TriStar Pictures     USA Woody Allen
##  9 20000000                                     Miramax     USA Woody Allen
## 10 15000000                             Sweetland Films     USA Woody Allen
## # ... with 17 more rows, and 11 more variables: genre <fctr>, gross <dbl>,
## #   name <fctr>, rating <fctr>, released <fctr>, runtime <int>, score <dbl>,
## #   star <fctr>, votes <int>, writer <fctr>, year <int>
…
select(): pick columns by name

# base R approach to select columns
movies[, c("name", "year", "genre")]

# dplyr approach
movies.sub <- select(movies, name, country, year, genre)
movies.sub

## # A tibble: 6,820 x 4
##                        name country  year     genre
##  *                   <fctr>  <fctr> <int>    <fctr>
##  1              Stand by Me     USA  1986 Adventure
##  2 Ferris Bueller's Day Off     USA  1986    Comedy
##  3                  Top Gun     USA  1986    Action
##  4                   Aliens     USA  1986    Action
##  5  Flight of the Navigator     USA  1986 Adventure
##  6                  Platoon      UK  1986     Drama
##  7                Labyrinth      UK  1986 Adventure
##  8              Blue Velvet     USA  1986     Drama
##  9           Pretty in Pink     USA  1986    Comedy
## 10                  The Fly     USA  1986     Drama
## # ... with 6,810 more rows

# use colon to select multiple contiguous columns, 
select(movies, name, genre:score)

## # A tibble: 6,820 x 7
##                        name     genre     gross rating   released runtime score
##  *                   <fctr>    <fctr>     <dbl> <fctr>     <fctr>   <int> <dbl>
##  1              Stand by Me Adventure  52287414      R 1986-08-22      89   8.1
##  2 Ferris Bueller's Day Off    Comedy  70136369  PG-13 1986-06-11     103   7.8
##  3                  Top Gun    Action 179800601     PG 1986-05-16     110   6.9
##  4                   Aliens    Action  85160248      R 1986-07-18     137   8.4
##  5  Flight of the Navigator Adventure  18564613     PG 1986-08-01      90   6.9
##  6                  Platoon     Drama 138530565      R 1987-02-06     120   8.1
##  7                Labyrinth Adventure  12729917     PG 1986-06-27     101   7.4
##  8              Blue Velvet     Drama   8551228      R 1986-10-23     120   7.8
##  9           Pretty in Pink    Comedy  40471663  PG-13 1986-02-28      96   6.8
## 10                  The Fly     Drama  40456565      R 1986-08-15      96   7.5
## # ... with 6,810 more rows
select() helpers

You can use the following functions to help select the columns:

starts_with()

ends_with()

contains()

matches() (matches a regular expression)

select(movies, starts_with("r"))

## # A tibble: 6,820 x 3
##    rating   released runtime
##  * <fctr>     <fctr>   <int>
##  1      R 1986-08-22      89
##  2  PG-13 1986-06-11     103
##  3     PG 1986-05-16     110
##  4      R 1986-07-18     137
##  5     PG 1986-08-01      90
##  6      R 1987-02-06     120
##  7     PG 1986-06-27     101
##  8      R 1986-10-23     120
##  9  PG-13 1986-02-28      96
## 10      R 1986-08-15      96
## # ... with 6,810 more rows

select(movies, ends_with("e"))

## # A tibble: 6,820 x 4
##        genre                     name runtime score
##  *    <fctr>                   <fctr>   <int> <dbl>
##  1 Adventure              Stand by Me      89   8.1
##  2    Comedy Ferris Bueller's Day Off     103   7.8
##  3    Action                  Top Gun     110   6.9
##  4    Action                   Aliens     137   8.4
##  5 Adventure  Flight of the Navigator      90   6.9
##  6     Drama                  Platoon     120   8.1
##  7 Adventure                Labyrinth     101   7.4
##  8     Drama              Blue Velvet     120   7.8
##  9    Comedy           Pretty in Pink      96   6.8
## 10     Drama                  The Fly      96   7.5
## # ... with 6,810 more rows

select(movies, contains("re"))

## # A tibble: 6,820 x 4
##            director     genre   released score
##  *           <fctr>    <fctr>     <fctr> <dbl>
##  1       Rob Reiner Adventure 1986-08-22   8.1
##  2      John Hughes    Comedy 1986-06-11   7.8
##  3       Tony Scott    Action 1986-05-16   6.9
##  4    James Cameron    Action 1986-07-18   8.4
##  5   Randal Kleiser Adventure 1986-08-01   6.9
##  6     Oliver Stone     Drama 1987-02-06   8.1
##  7       Jim Henson Adventure 1986-06-27   7.4
##  8      David Lynch     Drama 1986-10-23   7.8
##  9    Howard Deutch    Comedy 1986-02-28   6.8
## 10 David Cronenberg     Drama 1986-08-15   7.5
## # ... with 6,810 more rows

Dropping columns

# remove budget and company columns
print(select(movies, -budget, -company), n = 6)

## # A tibble: 6,820 x 13
##   country       director     genre     gross                     name rating
## *  <fctr>         <fctr>    <fctr>     <dbl>                   <fctr> <fctr>
## 1     USA     Rob Reiner Adventure  52287414              Stand by Me      R
## 2     USA    John Hughes    Comedy  70136369 Ferris Bueller's Day Off  PG-13
## 3     USA     Tony Scott    Action 179800601                  Top Gun     PG
## 4     USA  James Cameron    Action  85160248                   Aliens      R
## 5     USA Randal Kleiser Adventure  18564613  Flight of the Navigator     PG
## 6      UK   Oliver Stone     Drama 138530565                  Platoon      R
## # ... with 6,814 more rows, and 7 more variables: released <fctr>,
## #   runtime <int>, score <dbl>, star <fctr>, votes <int>, writer <fctr>,
## #   year <int>

# Selecting and renaming in one
print(select(movies, name, gross_revenue = gross), n = 6)

## # A tibble: 6,820 x 2
##                       name gross_revenue
## *                   <fctr>         <dbl>
## 1              Stand by Me      52287414
## 2 Ferris Bueller's Day Off      70136369
## 3                  Top Gun     179800601
## 4                   Aliens      85160248
## 5  Flight of the Navigator      18564613
## 6                  Platoon     138530565
## # ... with 6,814 more rows

arrange(): reorder rows

# dplyr approach
print(arrange(movies.sub, name), n = 6)

## # A tibble: 6,820 x 4
##                 name country  year   genre
##               <fctr>  <fctr> <int>  <fctr>
## 1                '71      UK  2014  Action
## 2     'night, Mother     USA  1986   Drama
## 3    'Round Midnight     USA  1986   Drama
## 4 'Til There Was You     USA  1997 Romance
## 5            [Rec] 2   Spain  2009  Horror
## 6   [REC] 3: Genesis   Spain  2012  Horror
## # ... with 6,814 more rows

# use `desc` for descending
print(arrange(movies.sub, desc(year)), n = 6)

## # A tibble: 6,820 x 4
##                                      name country  year     genre
##                                    <fctr>  <fctr> <int>    <fctr>
## 1                           The Bad Batch     USA  2016     Drama
## 2                        Assassin's Creed     USA  2016    Action
## 3                              La La Land     USA  2016    Comedy
## 4                           Suicide Squad     USA  2016    Action
## 5                                    Sing     USA  2016 Animation
## 6 Fantastic Beasts and Where to Find Them      UK  2016 Adventure
## # ... with 6,814 more rows

mutate(): add new variables

# base R approach to create a new variable 'profit'
movies$profit <- movies$gross - movies$budget

# dplyr approach
movies <- mutate(movies, profit = gross - budget)
select(movies, name, gross, budget, profit)

## # A tibble: 6,820 x 4
##                        name     gross   budget    profit
##                      <fctr>     <dbl>    <dbl>     <dbl>
##  1              Stand by Me  52287414  8000000  44287414
##  2 Ferris Bueller's Day Off  70136369  6000000  64136369
##  3                  Top Gun 179800601 15000000 164800601
##  4                   Aliens  85160248 18500000  66660248
##  5  Flight of the Navigator  18564613  9000000   9564613
##  6                  Platoon 138530565  6000000 132530565
##  7                Labyrinth  12729917 25000000 -12270083
##  8              Blue Velvet   8551228  6000000   2551228
##  9           Pretty in Pink  40471663  9000000  31471663
## 10                  The Fly  40456565 15000000  25456565
## # ... with 6,810 more rows

Generating multiple new variables

movies <- mutate(movies, 
                 profit = gross - budget, 
                 gross_in_mil = gross/10^6,
                 budget_in_mil = budget/10^6,
                 profit_in_mil = profit/10^6)
select(movies, name, contains("_in_mil"))

## # A tibble: 6,820 x 4
##                        name gross_in_mil budget_in_mil profit_in_mil
##                      <fctr>        <dbl>         <dbl>         <dbl>
##  1              Stand by Me    52.287414           8.0     44.287414
##  2 Ferris Bueller's Day Off    70.136369           6.0     64.136369
##  3                  Top Gun   179.800601          15.0    164.800601
##  4                   Aliens    85.160248          18.5     66.660248
##  5  Flight of the Navigator    18.564613           9.0      9.564613
##  6                  Platoon   138.530565           6.0    132.530565
##  7                Labyrinth    12.729917          25.0    -12.270083
##  8              Blue Velvet     8.551228           6.0      2.551228
##  9           Pretty in Pink    40.471663           9.0     31.471663
## 10                  The Fly    40.456565          15.0     25.456565
## # ... with 6,810 more rows
…
green

eggplants

purple

Extra functions

Renaming

movies.sub <- movies %>% select(name, director, year, score, gross)
print(movies.sub, n = 3)

## # A tibble: 6,820 x 5
##                       name    director  year score     gross
##                     <fctr>      <fctr> <int> <dbl>     <dbl>
## 1              Stand by Me  Rob Reiner  1986   8.1  52287414
## 2 Ferris Bueller's Day Off John Hughes  1986   7.8  70136369
## 3                  Top Gun  Tony Scott  1986   6.9 179800601
## # ... with 6,817 more rows

# Renaming variable
movies.sub %>% rename(gross_revenue = gross)

## # A tibble: 6,820 x 5
##                        name         director  year score gross_revenue
##                      <fctr>           <fctr> <int> <dbl>         <dbl>
##  1              Stand by Me       Rob Reiner  1986   8.1      52287414
##  2 Ferris Bueller's Day Off      John Hughes  1986   7.8      70136369
##  3                  Top Gun       Tony Scott  1986   6.9     179800601
##  4                   Aliens    James Cameron  1986   8.4      85160248
##  5  Flight of the Navigator   Randal Kleiser  1986   6.9      18564613
##  6                  Platoon     Oliver Stone  1986   8.1     138530565
##  7                Labyrinth       Jim Henson  1986   7.4      12729917
##  8              Blue Velvet      David Lynch  1986   7.8       8551228
##  9           Pretty in Pink    Howard Deutch  1986   6.8      40471663
## 10                  The Fly David Cronenberg  1986   7.5      40456565
## # ... with 6,810 more rows
…
Window Functions

Aggregation functions such as mean(), n() return 1 value per group.

Window functions return multiple values per group. Examples include: ranking and ordering functions (like min_rank, top_n()), offset functions (lead and lag), and cumulative aggregates (like cummean).

# rewrite more simply with the `top_n` function
movies %>%
  select(name, genre, year, score) %>%
  group_by(genre) %>%  
  top_n(2, wt = score) %>%      # if 'wt' argument in top_n() is not specified
  arrange(genre, year, score)   # the last variable is taken for ordering

## # A tibble: 35 x 4
## # Groups:   genre [17]
##                                                 name     genre  year score
##                                               <fctr>    <fctr> <int> <dbl>
##  1                                   The Dark Knight    Action  2008   9.0
##  2                                         Inception    Action  2010   8.8
##  3 The Lord of the Rings: The Fellowship of the Ring Adventure  2001   8.8
##  4     The Lord of the Rings: The Return of the King Adventure  2003   8.9
##  5                                     The Lion King Animation  1994   8.5
##  6                                     Spirited Away Animation  2001   8.6
##  7                                         Your name Animation  2016   8.5
##  8                                  Schindler's List Biography  1993   8.9
##  9                                  The Intouchables Biography  2011   8.6
## 10                                      Forrest Gump    Comedy  1994   8.8
## # ... with 25 more rows
…
# randomly sample a fraction of rows, with replacement
movies %>% sample_frac(0.01, replace=TRUE)

## # A tibble: 68 x 19
##     budget                                      company   country
##      <dbl>                                       <fctr>    <fctr>
##  1 1.0e+06                         Fewlas Entertainment       USA
##  2 2.0e+07                           Universal Pictures       USA
##  3 1.5e+08                        Warner Bros. Pictures Australia
##  4 5.0e+06       Gordon Bijelonic / Datari Turner Films       USA
##  5 1.0e+07                             Caravan Pictures       USA
##  6 3.0e+07                           Universal Pictures       USA
##  7 0.0e+00                       Mindfire Entertainment       USA
##  8 0.0e+00                              Empire Pictures       USA
##  9 0.0e+00 Motion Picture Corporation of America (MPCA)       USA
## 10 2.4e+07                          Touchstone Pictures       USA
## # ... with 58 more rows, and 16 more variables: director <fctr>, genre <fctr>,
## #   gross <dbl>, name <fctr>, rating <fctr>, released <fctr>, runtime <int>,
## #   score <dbl>, star <fctr>, votes <int>, writer <fctr>, year <int>,
## #   profit <dbl>, gross_in_mil <dbl>, budget_in_mil <dbl>, profit_in_mil <dbl>
