Lecture 7: Classification
…
Grad School Admissions

Suppose we would like to predict students’ admission to graduate school based on their GRE, GPA, and the rank of their undergraduate institution.

admissions <- read.csv("https://stats.idre.ucla.edu/stat/data/binary.csv")
admissions <- tbl_df(admissions)
admissions

## # A tibble: 400 x 4
##    admit   gre   gpa  rank
##    <int> <int> <dbl> <int>
##  1     0   380  3.61     3
##  2     1   660  3.67     3
##  3     1   800  4.00     1
##  4     1   640  3.19     4
##  5     0   520  2.93     4
##  6     1   760  3.00     2
##  7     1   560  2.98     1
##  8     0   400  3.08     2
##  9     1   540  3.39     3
## 10     0   700  3.92     2
## # ... with 390 more rows
…
sapply(admissions, class)

##     admit       gre       gpa      rank 
## "integer" "integer" "numeric" "integer"

We convert the two columns to factors.

admissions <- mutate(admissions,
  admit = factor(admit, levels = c(0, 1), labels = c("rejected", "admitted")),
  rank = factor(rank, levels = 1:4)
)
admissions

## # A tibble: 400 x 4
##       admit   gre   gpa   rank
##      <fctr> <int> <dbl> <fctr>
##  1 rejected   380  3.61      3
##  2 admitted   660  3.67      3
##  3 admitted   800  4.00      1
##  4 admitted   640  3.19      4
##  5 rejected   520  2.93      4
##  6 admitted   760  3.00      2
##  7 admitted   560  2.98      1
##  8 rejected   400  3.08      2
##  9 admitted   540  3.39      3
## 10 rejected   700  3.92      2
## # ... with 390 more rows
…
Source: link

Wine Quality

UCI ML Repo includes two datasets on red and white variants of the Portuguese “Vinho Verde” wine. The datasets contain information on physicochemical and sensory characteristics of the wine quality score.

We will use the white wines dataset to classify wines according to their quality classes.

url <- 'https://archive.ics.uci.edu/ml/machine-learning-databases/wine-quality/winequality-white.csv'
wines <- tbl_df(read.csv(url, sep = ";"))
print(wines, n = 6)

## # A tibble: 4,898 x 12
##   fixed.acidity volatile.acidity citric.acid residual.sugar chlorides
##           <dbl>            <dbl>       <dbl>          <dbl>     <dbl>
## 1           7.0             0.27        0.36           20.7     0.045
## 2           6.3             0.30        0.34            1.6     0.049
## 3           8.1             0.28        0.40            6.9     0.050
## 4           7.2             0.23        0.32            8.5     0.058
## 5           7.2             0.23        0.32            8.5     0.058
## 6           8.1             0.28        0.40            6.9     0.050
## # ... with 4,892 more rows, and 7 more variables:
## #   free.sulfur.dioxide <dbl>, total.sulfur.dioxide <dbl>, density <dbl>,
## #   pH <dbl>, sulphates <dbl>, alcohol <dbl>, quality <int>
…
To make things easier, we will wines into “good”, “average” and “bad” categories.

The new classes will be more balanced, and it will be easier to fit the model.

qualClass <- function(quality) {
  if(quality > 6) return("good")
  if(quality < 6) return("bad")
  return("average")
}
wines <- mutate(wines, taste = sapply(quality, qualClass),
         taste = factor(taste, levels = c("bad", "average", "good")))
wines

## # A tibble: 4,898 x 13
##    fixed.acidity volatile.acidity citric.acid residual.sugar chlorides
##            <dbl>            <dbl>       <dbl>          <dbl>     <dbl>
##  1           7.0             0.27        0.36           20.7     0.045
##  2           6.3             0.30        0.34            1.6     0.049
##  3           8.1             0.28        0.40            6.9     0.050
##  4           7.2             0.23        0.32            8.5     0.058
##  5           7.2             0.23        0.32            8.5     0.058
##  6           8.1             0.28        0.40            6.9     0.050
##  7           6.2             0.32        0.16            7.0     0.045
##  8           7.0             0.27        0.36           20.7     0.045
##  9           6.3             0.30        0.34            1.6     0.049
## 10           8.1             0.22        0.43            1.5     0.044
## # ... with 4,888 more rows, and 8 more variables:
## #   free.sulfur.dioxide <dbl>, total.sulfur.dioxide <dbl>, density <dbl>,
## #   pH <dbl>, sulphates <dbl>, alcohol <dbl>, quality <int>, taste <fctr>
…
