Lecture 4: Visualizing data
…
is less verbose for complex/custom graphics,

generates graphs by adding building blocks, instead of calling different functions to draw new layers on top,

makes it easier to edit and tweak elements of a plot,

more details on advantages of ggplot2 over base plot are in this blog.

Example 1: History of unemployment

ggplot2 has a built-in economics dataset, which inclides time series data on US unemployment from 1967 to 2015.

economics

## # A tibble: 574 x 6
##    date         pce    pop psavert uempmed unemploy
##    <date>     <dbl>  <int>   <dbl>   <dbl>    <int>
##  1 1967-07-01  507. 198712    12.5     4.5     2944
##  2 1967-08-01  510. 198911    12.5     4.7     2945
##  3 1967-09-01  516. 199113    11.7     4.6     2958
##  4 1967-10-01  513. 199311    12.5     4.9     3143
##  5 1967-11-01  518. 199498    12.5     4.7     3066
##  6 1967-12-01  526. 199657    12.1     4.8     3018
##  7 1968-01-01  532. 199808    11.7     5.1     2878
##  8 1968-02-01  534. 199920    12.2     4.5     3001
##  9 1968-03-01  545. 200056    11.6     4.1     2877
## 10 1968-04-01  545. 200208    12.2     4.6     2709
## # ... with 564 more rows
…
What about comparing 2009 to 2014?

# Add new variables for plotting
economics <- economics %>% 
  mutate(month = as.numeric(format(date, format="%m")),
         year  = as.factor(format(date, format="%Y")))
economics %>% 
  select(date, month, year, unemp_rate)

## # A tibble: 574 x 4
##    date       month year  unemp_rate
##    <date>     <dbl> <fct>      <dbl>
##  1 1967-07-01     7 1967      0.0148
##  2 1967-08-01     8 1967      0.0148
##  3 1967-09-01     9 1967      0.0149
##  4 1967-10-01    10 1967      0.0158
##  5 1967-11-01    11 1967      0.0154
##  6 1967-12-01    12 1967      0.0151
##  7 1968-01-01     1 1968      0.0144
##  8 1968-02-01     2 1968      0.0150
##  9 1968-03-01     3 1968      0.0144
## 10 1968-04-01     4 1968      0.0135
## # ... with 564 more rows
…
Geometric objects

The diamond dataset

diamond is a built-in dataset, included in tidyverse. It contains prices and other attributes of almost 54,000 diamonds. We will use this dataset to illustrate how to use functions in ggplot2.

data(diamonds)
diamonds

## # A tibble: 53,940 x 10
##    carat cut       color clarity depth table price     x     y     z
##    <dbl> <ord>     <ord> <ord>   <dbl> <dbl> <int> <dbl> <dbl> <dbl>
##  1 0.23  Ideal     E     SI2      61.5    55   326  3.95  3.98  2.43
##  2 0.21  Premium   E     SI1      59.8    61   326  3.89  3.84  2.31
##  3 0.23  Good      E     VS1      56.9    65   327  4.05  4.07  2.31
##  4 0.290 Premium   I     VS2      62.4    58   334  4.2   4.23  2.63
##  5 0.31  Good      J     SI2      63.3    58   335  4.34  4.35  2.75
##  6 0.24  Very Good J     VVS2     62.8    57   336  3.94  3.96  2.48
##  7 0.24  Very Good I     VVS1     62.3    57   336  3.95  3.98  2.47
##  8 0.26  Very Good H     SI1      61.9    55   337  4.07  4.11  2.53
##  9 0.22  Fair      E     VS2      65.1    61   337  3.87  3.78  2.49
## 10 0.23  Very Good H     VS1      59.4    61   338  4     4.05  2.39
## # ... with 53,930 more rows
…
