Lecture 6: Data modeling and linear regression
…
The modelr package, provides a few useful functions that are wrappers around base R’s modeling functions.

These functions facilitate the data analysis process as they are nicely integrated with the tidyverse pipeline.

modelr is not automatically loaded when you load in tidyverse package, you need to do it separately:

library(modelr)

A toy dataset

We will work with a simulated dataset sim1 from modelr:

sim1

## # A tibble: 30 x 2
##        x     y
##    <int> <dbl>
##  1     1  4.20
##  2     1  7.51
##  3     1  2.13
##  4     2  8.99
##  5     2 10.2 
##  6     2 11.3 
##  7     3  7.36
##  8     3 10.5 
##  9     3 10.5 
## 10     4 12.4 
## # ... with 20 more rows
…
Formulae in R

You have seen that lm() takes in a formula relation y ~ x as an argument.

You can take a look at what R actually does, you can use the model_matrix().

sim1

## # A tibble: 30 x 3
##        x     y  pred
##    <int> <dbl> <dbl>
##  1     1  4.20  6.27
##  2     1  7.51  6.27
##  3     1  2.13  6.27
##  4     2  8.99  8.32
##  5     2 10.2   8.32
##  6     2 11.3   8.32
##  7     3  7.36 10.4 
##  8     3 10.5  10.4 
##  9     3 10.5  10.4 
## 10     4 12.4  12.4 
## # ... with 20 more rows

model_matrix(sim1, y ~ x)

## # A tibble: 30 x 2
##    `(Intercept)`     x
##            <dbl> <dbl>
##  1             1     1
##  2             1     1
##  3             1     1
##  4             1     2
##  5             1     2
##  6             1     2
##  7             1     3
##  8             1     3
##  9             1     3
## 10             1     4
## # ... with 20 more rows
…
