CME/STATS 195
…
To use functions from tibble and other tidyverse packages:

# load it into memory
library(tidyverse)

Printing tibble is much nicer, and always fits into your window:

# e.g. a built-in dataset 'diamonds' is a tibble:
class(diamonds)

## [1] "tbl_df"     "tbl"        "data.frame"

diamonds

## # A tibble: 53,940 x 10
##    carat cut       color clarity depth table price     x     y     z
##    <dbl> <ord>     <ord> <ord>   <dbl> <dbl> <int> <dbl> <dbl> <dbl>
##  1 0.23  Ideal     E     SI2      61.5    55   326  3.95  3.98  2.43
##  2 0.21  Premium   E     SI1      59.8    61   326  3.89  3.84  2.31
##  3 0.23  Good      E     VS1      56.9    65   327  4.05  4.07  2.31
##  4 0.290 Premium   I     VS2      62.4    58   334  4.2   4.23  2.63
##  5 0.31  Good      J     SI2      63.3    58   335  4.34  4.35  2.75
##  6 0.24  Very Good J     VVS2     62.8    57   336  3.94  3.96  2.48
##  7 0.24  Very Good I     VVS1     62.3    57   336  3.95  3.98  2.47
##  8 0.26  Very Good H     SI1      61.9    55   337  4.07  4.11  2.53
##  9 0.22  Fair      E     VS2      65.1    61   337  3.87  3.78  2.49
## 10 0.23  Very Good H     VS1      59.4    61   338  4     4.05  2.39
## # … with 53,930 more rows
…
## Warning in rbind(names(probs), probs_f): number of columns of result is not a
## multiple of vector length (arg 1)

## Warning: 1000 parsing failures.
## row # A tibble: 5 x 5 col     row col   expected        actual      file                                  expected   <int> <chr> <chr>           <chr>       <chr>                                 actual 1  1001 x     no trailing ch… .238379750… '/home/lanhuong/R/x86_64-pc-linux-gn… file 2  1002 x     no trailing ch… .411679971… '/home/lanhuong/R/x86_64-pc-linux-gn… row 3  1003 x     no trailing ch… .746071676… '/home/lanhuong/R/x86_64-pc-linux-gn… col 4  1004 x     no trailing ch… .723450553… '/home/lanhuong/R/x86_64-pc-linux-gn… expected 5  1005 x     no trailing ch… .614524137… '/home/lanhuong/R/x86_64-pc-linux-gn…
## ... ................. ... ............................................................................... ........ ............................................................................... ...... ............................................................................... .... ............................................................................... ... ............................................................................... ... ............................................................................... ........ ...............................................................................
## See problems(...) for more details.

Examining what went wrong

See problems(…) for more details.

problems(challenge)

## # A tibble: 1,000 x 5
##      row col   expected        actual      file                                
##    <int> <chr> <chr>           <chr>       <chr>                               
##  1  1001 x     no trailing ch… .238379750… '/home/lanhuong/R/x86_64-pc-linux-g…
##  2  1002 x     no trailing ch… .411679971… '/home/lanhuong/R/x86_64-pc-linux-g…
##  3  1003 x     no trailing ch… .746071676… '/home/lanhuong/R/x86_64-pc-linux-g…
##  4  1004 x     no trailing ch… .723450553… '/home/lanhuong/R/x86_64-pc-linux-g…
##  5  1005 x     no trailing ch… .614524137… '/home/lanhuong/R/x86_64-pc-linux-g…
##  6  1006 x     no trailing ch… .473980569… '/home/lanhuong/R/x86_64-pc-linux-g…
##  7  1007 x     no trailing ch… .578461039… '/home/lanhuong/R/x86_64-pc-linux-g…
##  8  1008 x     no trailing ch… .241593722… '/home/lanhuong/R/x86_64-pc-linux-g…
##  9  1009 x     no trailing ch… .114378662… '/home/lanhuong/R/x86_64-pc-linux-g…
## 10  1010 x     no trailing ch… .298344632… '/home/lanhuong/R/x86_64-pc-linux-g…
## # … with 990 more rows
…
## Warning in rbind(names(probs), probs_f): number of columns of result is not a
## multiple of vector length (arg 1)

## Warning: 1000 parsing failures.
## row # A tibble: 5 x 5 col     row col   expected        actual      file                                  expected   <int> <chr> <chr>           <chr>       <chr>                                 actual 1  1001 x     no trailing ch… .238379750… '/home/lanhuong/R/x86_64-pc-linux-gn… file 2  1002 x     no trailing ch… .411679971… '/home/lanhuong/R/x86_64-pc-linux-gn… row 3  1003 x     no trailing ch… .746071676… '/home/lanhuong/R/x86_64-pc-linux-gn… col 4  1004 x     no trailing ch… .723450553… '/home/lanhuong/R/x86_64-pc-linux-gn… expected 5  1005 x     no trailing ch… .614524137… '/home/lanhuong/R/x86_64-pc-linux-gn…
## ... ................. ... ............................................................................... ........ ............................................................................... ...... ............................................................................... .... ............................................................................... ... ............................................................................... ... ............................................................................... ........ ...............................................................................
## See problems(...) for more details.

It seems that first column should be a real number:

( challenge <- read_csv(readr_example("challenge.csv"), 
    col_types = cols(x = col_double(), y = col_character()) ) )

## # A tibble: 2,000 x 2
##        x y    
##    <dbl> <chr>
##  1   404 <NA> 
##  2  4172 <NA> 
##  3  3004 <NA> 
##  4   787 <NA> 
##  5    37 <NA> 
##  6  2332 <NA> 
##  7  2489 <NA> 
##  8  1449 <NA> 
##  9  3665 <NA> 
## 10  3863 <NA> 
## # … with 1,990 more rows
…
Then use type_convert(), which applies the parsing heuristics to the character columns.

type_convert(challenge2)

## Parsed with column specification:
## cols(
##   x = col_double(),
##   y = col_date(format = "")
## )

## # A tibble: 2,000 x 2
##        x y         
##    <dbl> <date>    
##  1   404 NA        
##  2  4172 NA        
##  3  3004 NA        
##  4   787 NA        
##  5    37 NA        
##  6  2332 NA        
##  7  2489 NA        
##  8  1449 NA        
##  9  3665 NA        
## 10  3863 NA        
## # … with 1,990 more rows
…
The result is a new tibble

Learn more about dplyr from a turtorial written by its creator, Hadley Wickham.

The movie industry dataset

movies.csv contains information on last three decades of movies.

The data has been scraped from the IMDb website and can be accessed from a github repo.

url <- "https://raw.githubusercontent.com/Juanets/movie-stats/master/movies.csv"
movies <- read_csv(url)
movies

## # A tibble: 6,820 x 15
##    budget company country director genre  gross name  rating released runtime
##     <dbl> <chr>   <chr>   <chr>    <chr>  <dbl> <chr> <chr>  <chr>      <int>
##  1 8.00e6 Columb… USA     Rob Rei… Adve… 5.23e7 Stan… R      1986-08…      89
##  2 6.00e6 Paramo… USA     John Hu… Come… 7.01e7 Ferr… PG-13  1986-06…     103
##  3 1.50e7 Paramo… USA     Tony Sc… Acti… 1.80e8 Top … PG     1986-05…     110
##  4 1.85e7 Twenti… USA     James C… Acti… 8.52e7 Alie… R      1986-07…     137
##  5 9.00e6 Walt D… USA     Randal … Adve… 1.86e7 Flig… PG     1986-08…      90
##  6 6.00e6 Hemdale UK      Oliver … Drama 1.39e8 Plat… R      1987-02…     120
##  7 2.50e7 Henson… UK      Jim Hen… Adve… 1.27e7 Laby… PG     1986-06…     101
##  8 6.00e6 De Lau… USA     David L… Drama 8.55e6 Blue… R      1986-10…     120
##  9 9.00e6 Paramo… USA     Howard … Come… 4.05e7 Pret… PG-13  1986-02…      96
## 10 1.50e7 SLM Pr… USA     David C… Drama 4.05e7 The … R      1986-08…      96
## # … with 6,810 more rows, and 5 more variables: score <dbl>, star <chr>,
## #   votes <int>, writer <chr>, year <int>

filter(): retain rows matching a criteria

filter() allows you to subset observations based on their values.

# note: both comma and "&" represent AND condition
filter(movies, genre == "Comedy", director == "Woody Allen")

## # A tibble: 27 x 15
##    budget company country director genre  gross name  rating released runtime
##     <dbl> <chr>   <chr>   <chr>    <chr>  <dbl> <chr> <chr>  <chr>      <int>
##  1 6.40e6 Orion … USA     Woody A… Come… 4.01e7 Hann… PG-13  1986-03…     107
##  2 1.60e7 Orion … USA     Woody A… Come… 1.48e7 Radi… PG     1987-01…      88
##  3 1.90e7 Jack R… USA     Woody A… Come… 1.83e7 Crim… PG-13  1989-11…     104
##  4 1.50e7 Touchs… USA     Woody A… Come… 1.08e7 New … PG     1989-03…     124
##  5 1.20e7 Orion … USA     Woody A… Come… 7.33e6 Alice PG-13  1991-01…     106
##  6 1.40e7 Orion … USA     Woody A… Come… 2.74e6 Shad… PG-13  1992-03…      85
##  7 2.00e7 TriSta… USA     Woody A… Come… 1.06e7 Husb… R      1992-09…     103
##  8 1.35e7 TriSta… USA     Woody A… Come… 1.13e7 Manh… PG     1993-08…     104
##  9 2.00e7 Miramax USA     Woody A… Come… 1.34e7 Bull… R      1995-02…      98
## 10 1.50e7 Sweetl… USA     Woody A… Come… 6.70e6 Migh… R      1995-11…      95
## # … with 17 more rows, and 5 more variables: score <dbl>, star <chr>,
## #   votes <int>, writer <chr>, year <int>
…
select(): pick columns by name

select() let’s you choose a subset variables, specified by name.

Note, there is no need for quotation marks in dplyr:

# dplyr approach
select(movies, name, country, year, genre)

## # A tibble: 6,820 x 4
##    name                     country  year genre    
##    <chr>                    <chr>   <int> <chr>    
##  1 Stand by Me              USA      1986 Adventure
##  2 Ferris Bueller's Day Off USA      1986 Comedy   
##  3 Top Gun                  USA      1986 Action   
##  4 Aliens                   USA      1986 Action   
##  5 Flight of the Navigator  USA      1986 Adventure
##  6 Platoon                  UK       1986 Drama    
##  7 Labyrinth                UK       1986 Adventure
##  8 Blue Velvet              USA      1986 Drama    
##  9 Pretty in Pink           USA      1986 Comedy   
## 10 The Fly                  USA      1986 Drama    
## # … with 6,810 more rows

# base R approach would be:
movies[, c("name", "year", "genre")]

# use colon to select multiple contiguous columns, 
select(movies, name, genre:score)

## # A tibble: 6,820 x 7
##    name                     genre         gross rating released   runtime score
##    <chr>                    <chr>         <dbl> <chr>  <chr>        <int> <dbl>
##  1 Stand by Me              Adventure  52287414 R      1986-08-22      89   8.1
##  2 Ferris Bueller's Day Off Comedy     70136369 PG-13  1986-06-11     103   7.8
##  3 Top Gun                  Action    179800601 PG     1986-05-16     110   6.9
##  4 Aliens                   Action     85160248 R      1986-07-18     137   8.4
##  5 Flight of the Navigator  Adventure  18564613 PG     1986-08-01      90   6.9
##  6 Platoon                  Drama     138530565 R      1987-02-06     120   8.1
##  7 Labyrinth                Adventure  12729917 PG     1986-06-27     101   7.4
##  8 Blue Velvet              Drama       8551228 R      1986-10-23     120   7.8
##  9 Pretty in Pink           Comedy     40471663 PG-13  1986-02-28      96   6.8
## 10 The Fly                  Drama      40456565 R      1986-08-15      96   7.5
## # … with 6,810 more rows

# To drop columns use a minus, "-" 
select(movies, -(star:writer))

## # A tibble: 6,820 x 12
##    budget company country director genre  gross name  rating released runtime
##     <dbl> <chr>   <chr>   <chr>    <chr>  <dbl> <chr> <chr>  <chr>      <int>
##  1 8.00e6 Columb… USA     Rob Rei… Adve… 5.23e7 Stan… R      1986-08…      89
##  2 6.00e6 Paramo… USA     John Hu… Come… 7.01e7 Ferr… PG-13  1986-06…     103
##  3 1.50e7 Paramo… USA     Tony Sc… Acti… 1.80e8 Top … PG     1986-05…     110
##  4 1.85e7 Twenti… USA     James C… Acti… 8.52e7 Alie… R      1986-07…     137
##  5 9.00e6 Walt D… USA     Randal … Adve… 1.86e7 Flig… PG     1986-08…      90
##  6 6.00e6 Hemdale UK      Oliver … Drama 1.39e8 Plat… R      1987-02…     120
##  7 2.50e7 Henson… UK      Jim Hen… Adve… 1.27e7 Laby… PG     1986-06…     101
##  8 6.00e6 De Lau… USA     David L… Drama 8.55e6 Blue… R      1986-10…     120
##  9 9.00e6 Paramo… USA     Howard … Come… 4.05e7 Pret… PG-13  1986-02…      96
## 10 1.50e7 SLM Pr… USA     David C… Drama 4.05e7 The … R      1986-08…      96
## # … with 6,810 more rows, and 2 more variables: score <dbl>, year <int>
…
Examples:

select(movies, starts_with("r"))
select(movies, ends_with("e"))
select(movies, contains("re"))

arrange(): reorder rows

arrange() takes a data frame and a set of column names to order by.

For descending order, use the function desc() around the column name.

print(arrange(movies, runtime), n = 4)

## # A tibble: 6,820 x 15
##   budget company country director genre  gross name  rating released runtime
##    <dbl> <chr>   <chr>   <chr>    <chr>  <dbl> <chr> <chr>  <chr>      <int>
## 1 0.     Iwerks… France  Jean-Ja… Adve… 1.51e7 Wing… G      1996-09…      50
## 2 1.25e7 Univer… USA     Don Blu… Anim… 4.81e7 The … G      1988-11…      69
## 3 6.00e3 Next W… UK      Christo… Crime 4.85e4 Foll… R      1999-11…      69
## 4 0.     Hyperi… USA     Bruce W… Anim… 8.44e6 "B\x… PG-13  1992-07…      70
## # … with 6,816 more rows, and 5 more variables: score <dbl>, star <chr>,
## #   votes <int>, writer <chr>, year <int>

# use `desc` for descending
print(arrange(movies, desc(budget)), n = 4)

## # A tibble: 6,820 x 15
##   budget company country director genre  gross name  rating released runtime
##    <dbl> <chr>   <chr>   <chr>    <chr>  <dbl> <chr> <chr>  <chr>      <int>
## 1 3.00e8 Walt D… USA     Gore Ve… Acti… 3.09e8 Pira… PG-13  2007-05…     169
## 2 2.60e8 Walt D… USA     Nathan … Anim… 2.01e8 Tang… PG     2010-11…     100
## 3 2.58e8 Columb… USA     Sam Rai… Acti… 3.37e8 Spid… PG-13  2007-05…     139
## 4 2.50e8 Warner… UK      David Y… Adve… 3.02e8 Harr… PG     2009-07…     153
## # … with 6,816 more rows, and 5 more variables: score <dbl>, star <chr>,
## #   votes <int>, writer <chr>, year <int>

mutate(): add new variables

mutate() adds new columns that are a function of the existing ones

movies <- mutate(movies, profit = gross - budget)
select(movies, name, gross, budget, profit)

## # A tibble: 6,820 x 4
##    name                         gross   budget     profit
##    <chr>                        <dbl>    <dbl>      <dbl>
##  1 Stand by Me               52287414  8000000   44287414
##  2 Ferris Bueller's Day Off  70136369  6000000   64136369
##  3 Top Gun                  179800601 15000000  164800601
##  4 Aliens                    85160248 18500000   66660248
##  5 Flight of the Navigator   18564613  9000000    9564613
##  6 Platoon                  138530565  6000000  132530565
##  7 Labyrinth                 12729917 25000000  -12270083
##  8 Blue Velvet                8551228  6000000    2551228
##  9 Pretty in Pink            40471663  9000000   31471663
## 10 The Fly                   40456565 15000000   25456565
## # … with 6,810 more rows
…
# base R approach to create a new variable 'profit'
movies$profit <- movies$gross - movies$budget

# Generating multiple new variables
movies <- mutate(
  movies, 
  profit = gross - budget, 
  gross_in_mil = gross/10^6,
  budget_in_mil = budget/10^6,
  profit_in_mil = profit/10^6
)
select(movies, name, year, country, contains("_in_mil"), profit)

## # A tibble: 6,820 x 7
##    name          year country gross_in_mil budget_in_mil profit_in_mil   profit
##    <chr>        <int> <chr>          <dbl>         <dbl>         <dbl>    <dbl>
##  1 Stand by Me   1986 USA            52.3            8           44.3    4.43e7
##  2 Ferris Buel…  1986 USA            70.1            6           64.1    6.41e7
##  3 Top Gun       1986 USA           180.            15          165.     1.65e8
##  4 Aliens        1986 USA            85.2           18.5         66.7    6.67e7
##  5 Flight of t…  1986 USA            18.6            9            9.56   9.56e6
##  6 Platoon       1986 UK            139.             6          133.     1.33e8
##  7 Labyrinth     1986 UK             12.7           25          -12.3   -1.23e7
##  8 Blue Velvet   1986 USA             8.55           6            2.55   2.55e6
##  9 Pretty in P…  1986 USA            40.5            9           31.5    3.15e7
## 10 The Fly       1986 USA            40.5           15           25.5    2.55e7
## # … with 6,810 more rows
…
tally(group_by(movies, genre, country))

## # A tibble: 238 x 3
## # Groups:   genre [17]
##    genre  country            n
##    <chr>  <chr>          <int>
##  1 Action Aruba              1
##  2 Action Australia         12
##  3 Action Austria            1
##  4 Action Belgium            1
##  5 Action Brazil             2
##  6 Action Canada            26
##  7 Action China             13
##  8 Action Czech Republic     1
##  9 Action Denmark            2
## 10 Action France            41
## # … with 228 more rows

Window Functions

Aggregation functions such as mean(), n() return 1 value per group.

Window functions return multiple values per group, e.g. top_n(), lead and lag or cummean:

# rewrite more simply with the `top_n` function
movies2 <- select(movies, name, genre, country, year, budget, gross, profit, rating, score)
top2 <- top_n(group_by(movies2, genre), n = 2, wt = score)
arrange(top2, genre, year, score)  

## # A tibble: 35 x 9
## # Groups:   genre [17]
##    name              genre   country    year budget  gross  profit rating score
##    <chr>             <chr>   <chr>     <int>  <dbl>  <dbl>   <dbl> <chr>  <dbl>
##  1 The Dark Knight   Action  USA        2008 1.85e8 5.35e8  3.50e8 PG-13    9  
##  2 Inception         Action  USA        2010 1.60e8 2.93e8  1.33e8 PG-13    8.8
##  3 The Lord of the … Advent… New Zeal…  2001 9.30e7 3.16e8  2.23e8 PG-13    8.8
##  4 The Lord of the … Advent… USA        2003 9.40e7 3.78e8  2.84e8 PG-13    8.9
##  5 The Lion King     Animat… USA        1994 4.50e7 3.13e8  2.68e8 G        8.5
##  6 Spirited Away     Animat… Japan      2001 1.90e7 1.01e7 -8.94e6 PG       8.6
##  7 Your name         Animat… Japan      2016 0.     5.02e6  5.02e6 PG       8.5
##  8 Schindler's List  Biogra… USA        1993 2.20e7 9.61e7  7.41e7 R        8.9
##  9 The Intouchables  Biogra… France     2011 0.     1.32e7  1.32e7 R        8.6
## 10 Forrest Gump      Comedy  USA        1994 5.50e7 3.30e8  2.75e8 PG-13    8.8
## # … with 25 more rows

Other useful functions in dplyr

# Renaming variables
print(rename(movies2, gross_revenue = gross), n = 5)

## # A tibble: 6,820 x 9
##   name          genre   country  year budget gross_revenue  profit rating score
##   <chr>         <chr>   <chr>   <int>  <dbl>         <dbl>   <dbl> <chr>  <dbl>
## 1 Stand by Me   Advent… USA      1986 8.00e6      52287414  4.43e7 R        8.1
## 2 Ferris Buell… Comedy  USA      1986 6.00e6      70136369  6.41e7 PG-13    7.8
## 3 Top Gun       Action  USA      1986 1.50e7     179800601  1.65e8 PG       6.9
## 4 Aliens        Action  USA      1986 1.85e7      85160248  6.67e7 R        8.4
## 5 Flight of th… Advent… USA      1986 9.00e6      18564613  9.56e6 PG       6.9
## # … with 6,815 more rows
…
# Using multiple variables, returns distinct variable combinations.
distinct(movies2, rating, genre)

## # A tibble: 83 x 2
##    rating  genre    
##    <chr>   <chr>    
##  1 R       Adventure
##  2 PG-13   Comedy   
##  3 PG      Action   
##  4 R       Action   
##  5 PG      Adventure
##  6 R       Drama    
##  7 PG-13   Adventure
##  8 PG-13   Action   
##  9 R       Crime    
## 10 UNRATED Comedy   
## # … with 73 more rows
…
